<?xml version="1.0" standalone="no"?>
<!DOCTYPE svg PUBLIC "-//W3C//DTD SVG 20010904//EN"
        "http://www.w3.org/TR/2001/REC-SVG-20010904/DTD/svg10.dtd">
<svg version="1.0" xmlns="http://www.w3.org/2000/svg"
     width="519.000000pt" height="519.000000pt" viewBox="0 0 519.000000 519.000000"
     preserveAspectRatio="xMidYMid meet">
    <metadata>
        Created by potrace 1.11, written by Peter Selinger 2001-2013
    </metadata>
    <g transform="translate(0.000000,519.000000) scale(0.100000,-0.100000)"
       fill="#000000" stroke="none">
        <path d="M693 3322 c1 -1027 6 -1887 10 -1912 3 -25 9 -67 13 -94 3 -27 8 -58
10 -70 4 -20 13 -71 20 -108 10 -57 61 -226 92 -303 108 -272 283 -492 515
-648 130 -87 386 -202 388 -174 0 7 1 489 0 1072 0 1192 -4 1119 76 1201 63
65 131 68 223 9 l35 -22 1 186 c0 174 2 189 24 235 62 128 158 159 288 92 17
-9 32 -16 34 -16 2 0 3 78 2 173 0 195 7 224 73 274 32 25 45 28 108 28 85 0
69 9 390 -230 116 -85 253 -187 305 -225 52 -39 154 -114 227 -167 72 -54 198
-147 280 -207 153 -112 183 -140 211 -191 15 -27 17 -112 18 -903 0 -480 4
-875 8 -880 4 -4 11 0 16 8 4 8 20 29 35 45 84 97 200 309 258 476 37 106 84
275 93 339 3 19 9 58 14 85 27 149 35 280 35 570 0 231 -7 400 -19 475 -3 14
-7 49 -10 78 -10 89 -18 132 -61 322 -43 195 -150 446 -262 614 -76 114 -222
267 -328 344 -210 152 -462 239 -800 278 -75 9 -267 9 -320 0 -22 -4 -60 -9
-85 -12 -159 -19 -380 -106 -515 -203 -77 -55 -95 -71 -170 -146 -85 -85 -107
-111 -162 -193 -24 -35 -43 -62 -44 -60 0 2 -1 302 -3 668 -2 483 -6 679 -15
715 -30 123 -112 234 -208 283 -95 49 -148 55 -486 58 l-318 2 4 -1866z"/>
        <path d="M2574 3078 c-11 -5 -28 -22 -37 -38 -16 -26 -17 -109 -17 -980 l0
-953 43 7 c23 4 60 10 82 13 22 3 42 7 44 9 2 2 3 431 4 954 l0 950 -27 23
c-29 25 -60 30 -92 15z"/>
        <path d="M2909 2839 c-16 -17 -29 -36 -30 -43 0 -6 -1 -377 -2 -824 l-2 -812
29 0 c16 0 58 5 93 11 54 9 63 14 64 33 0 11 1 372 1 802 1 739 0 782 -17 811
-35 60 -92 69 -136 22z"/>
        <path d="M2232 2663 c-17 -8 -36 -28 -43 -44 -9 -23 -12 -215 -13 -790 l-1
-761 70 7 c39 3 80 9 93 12 l22 5 0 758 c0 741 0 758 -20 783 -29 37 -70 48
-108 30z"/>
        <path d="M3265 2550 c-24 -9 -47 -36 -62 -70 -6 -16 -10 -240 -11 -653 l0
-629 56 7 c71 8 113 15 122 20 3 2 7 282 7 622 1 650 1 646 -43 684 -26 22
-46 28 -69 19z"/>
        <path d="M1898 2136 l-33 -22 0 -544 c0 -398 3 -544 11 -543 6 1 40 5 75 9 35
4 67 11 70 17 11 16 8 1040 -2 1059 -23 42 -78 53 -121 24z"/>
        <path d="M3460 567 c-3 -3 -32 -8 -65 -11 -33 -4 -71 -9 -85 -11 -14 -2 -45
-7 -70 -10 -25 -3 -56 -8 -70 -10 -14 -2 -47 -7 -75 -10 -27 -3 -86 -10 -130
-16 -116 -16 -135 -18 -185 -24 -25 -3 -54 -7 -65 -9 -11 -2 -47 -7 -80 -11
-32 -4 -66 -8 -75 -10 -8 -1 -40 -6 -70 -9 -30 -4 -64 -8 -75 -10 -11 -2 -66
-9 -122 -16 l-103 -13 0 -56 c-2 -160 -1 -243 2 -247 3 -2 128 12 279 31 151
19 294 37 319 40 25 3 77 10 115 15 75 10 121 16 200 25 28 4 61 8 75 10 14 2
52 7 85 11 33 3 67 8 75 9 107 20 135 17 259 -28 l122 -44 74 51 c40 28 99 73
130 100 l57 50 -54 24 c-148 65 -412 173 -436 178 -15 3 -29 3 -32 1z"/>
    </g>
</svg>
